…
### What is the average daily activity pattern?


```r
#GROUP DATA BY INTERVAL AND CALC MEAN NUMBER OF STEPS

df4 <- all_data %>%
  group_by(interval) %>%
  summarize(mean_steps = mean(steps, na.rm = T))
df4
```

```
## # A tibble: 288 x 2
##    interval mean_steps
##       <int>      <dbl>
##  1        0     1.72  
##  2        5     0.340 
##  3       10     0.132 
##  4       15     0.151 
##  5       20     0.0755
##  6       25     2.09  
##  7       30     0.528 
##  8       35     0.868 
##  9       40     0     
## 10       45     1.47  
## # … with 278 more rows
```
…
